Folder/PC/simulation/qsim/PC.msim.vcd
$comment
	File created using the following command:
		vcd file PC.msim.vcd -direction
$end
$date
	Sun Apr 03 20:52:47 2022
$end
$version
	ModelSim Version 10.1d
$end
$timescale
	1ps
$end
$scope module PC_vlg_vec_tst $end
$var reg 1 ! clk $end
$var reg 1 " PC_clr $end
$var reg 16 # PC_in [15:0] $end
$var reg 1 $ PC_ld $end
$var reg 16 % treg_PC_out [15:0] $end
$var reg 1 & PC_up $end
$var wire 1 ' PC_out [15] $end
$var wire 1 ( PC_out [14] $end
$var wire 1 ) PC_out [13] $end
$var wire 1 * PC_out [12] $end
$var wire 1 + PC_out [11] $end
$var wire 1 , PC_out [10] $end
$var wire 1 - PC_out [9] $end
$var wire 1 . PC_out [8] $end
$var wire 1 / PC_out [7] $end
$var wire 1 0 PC_out [6] $end
$var wire 1 1 PC_out [5] $end
$var wire 1 2 PC_out [4] $end
$var wire 1 3 PC_out [3] $end
$var wire 1 4 PC_out [2] $end
$var wire 1 5 PC_out [1] $end
$var wire 1 6 PC_out [0] $end
$var wire 1 7 sampler $end
$scope module i1 $end
$var wire 1 8 gnd $end
$var wire 1 9 vcc $end
$var wire 1 : unknown $end
$var tri1 1 ; devclrn $end
$var tri1 1 < devpor $end
$var tri1 1 = devoe $end
$var wire 1 > PC_out[0]~input_o $end
$var wire 1 ? PC_out[1]~input_o $end
$var wire 1 @ PC_out[2]~input_o $end
$var wire 1 A PC_out[3]~input_o $end
$var wire 1 B PC_out[4]~input_o $end
$var wire 1 C PC_out[5]~input_o $end
$var wire 1 D PC_out[6]~input_o $end
$var wire 1 E PC_out[7]~input_o $end
$var wire 1 F PC_out[8]~input_o $end
$var wire 1 G PC_out[9]~input_o $end
$var wire 1 H PC_out[10]~input_o $end
$var wire 1 I PC_out[11]~input_o $end
$var wire 1 J PC_out[12]~input_o $end
$var wire 1 K PC_out[13]~input_o $end
$var wire 1 L PC_out[14]~input_o $end
$var wire 1 M PC_out[15]~input_o $end
$var wire 1 N PC_out[0]~output_o $end
$var wire 1 O PC_out[1]~output_o $end
$var wire 1 P PC_out[2]~output_o $end
$var wire 1 Q PC_out[3]~output_o $end
$var wire 1 R PC_out[4]~output_o $end
$var wire 1 S PC_out[5]~output_o $end
$var wire 1 T PC_out[6]~output_o $end
$var wire 1 U PC_out[7]~output_o $end
$var wire 1 V PC_out[8]~output_o $end
$var wire 1 W PC_out[9]~output_o $end
$var wire 1 X PC_out[10]~output_o $end
$var wire 1 Y PC_out[11]~output_o $end
$var wire 1 Z PC_out[12]~output_o $end
$var wire 1 [ PC_out[13]~output_o $end
$var wire 1 \ PC_out[14]~output_o $end
$var wire 1 ] PC_out[15]~output_o $end
$var wire 1 ^ clk~input_o $end
$var wire 1 _ clk~inputclkctrl_outclk $end
$var wire 1 ` contador[0]~16_combout $end
$var wire 1 a PC_in[0]~input_o $end
$var wire 1 b PC_clr~input_o $end
$var wire 1 c PC_clr~inputclkctrl_outclk $end
$var wire 1 d PC_up~input_o $end
$var wire 1 e PC_ld~input_o $end
$var wire 1 f contador[0]~18_combout $end
$var wire 1 g contador[0]~17 $end
$var wire 1 h contador[1]~19_combout $end
$var wire 1 i PC_in[1]~input_o $end
$var wire 1 j contador[1]~20 $end
$var wire 1 k contador[2]~21_combout $end
$var wire 1 l PC_in[2]~input_o $end
$var wire 1 m contador[2]~22 $end
$var wire 1 n contador[3]~23_combout $end
$var wire 1 o PC_in[3]~input_o $end
$var wire 1 p contador[3]~24 $end
$var wire 1 q contador[4]~25_combout $end
$var wire 1 r PC_in[4]~input_o $end
$var wire 1 s contador[4]~26 $end
$var wire 1 t contador[5]~27_combout $end
$var wire 1 u PC_in[5]~input_o $end
$var wire 1 v contador[5]~28 $end
$var wire 1 w contador[6]~29_combout $end
$var wire 1 x PC_in[6]~input_o $end
$var wire 1 y contador[6]~30 $end
$var wire 1 z contador[7]~31_combout $end
$var wire 1 { PC_in[7]~input_o $end
$var wire 1 | contador[7]~32 $end
$var wire 1 } contador[8]~33_combout $end
$var wire 1 ~ PC_in[8]~input_o $end
$var wire 1 !! contador[8]~34 $end
$var wire 1 "! contador[9]~35_combout $end
$var wire 1 #! PC_in[9]~input_o $end
$var wire 1 $! contador[9]~36 $end
$var wire 1 %! contador[10]~37_combout $end
$var wire 1 &! PC_in[10]~input_o $end
$var wire 1 '! contador[10]~38 $end
$var wire 1 (! contador[11]~39_combout $end
$var wire 1 )! PC_in[11]~input_o $end
$var wire 1 *! contador[11]~40 $end
$var wire 1 +! contador[12]~41_combout $end
$var wire 1 ,! PC_in[12]~input_o $end
$var wire 1 -! contador[12]~42 $end
$var wire 1 .! contador[13]~43_combout $end
$var wire 1 /! PC_in[13]~input_o $end
$var wire 1 0! contador[13]~44 $end
$var wire 1 1! contador[14]~45_combout $end
$var wire 1 2! PC_in[14]~input_o $end
$var wire 1 3! contador[14]~46 $end
$var wire 1 4! contador[15]~47_combout $end
$var wire 1 5! PC_in[15]~input_o $end
$var wire 1 6! contador [15] $end
$var wire 1 7! contador [14] $end
$var wire 1 8! contador [13] $end
$var wire 1 9! contador [12] $end
$var wire 1 :! contador [11] $end
$var wire 1 ;! contador [10] $end
$var wire 1 <! contador [9] $end
$var wire 1 =! contador [8] $end
$var wire 1 >! contador [7] $end
$var wire 1 ?! contador [6] $end
$var wire 1 @! contador [5] $end
$var wire 1 A! contador [4] $end
$var wire 1 B! contador [3] $end
$var wire 1 C! contador [2] $end
$var wire 1 D! contador [1] $end
$var wire 1 E! contador [0] $end
$upscope $end
$upscope $end
$enddefinitions $end
#0
$dumpvars
0!
1"
b1001100011001000 #
0$
bz %
0&
06
05
04
03
02
01
00
0/
0.
0-
0,
0+
0*
0)
0(
0'
x7
08
19
x:
1;
1<
1=
0>
0?
0@
0A
0B
0C
0D
0E
0F
0G
0H
0I
0J
0K
0L
0M
0N
0O
0P
0Q
0R
0S
0T
0U
0V
0W
0X
0Y
0Z
0[
0\
0]
0^
0_
1`
0a
1b
1c
0d
0e
0f
0g
0h
0i
1j
0k
0l
0m
0n
1o
1p
0q
0r
0s
0t
0u
1v
0w
1x
0y
0z
1{
1|
0}
0~
0!!
0"!
0#!
1$!
0%!
0&!
0'!
0(!
1)!
1*!
0+!
1,!
0-!
0.!
0/!
10!
01!
02!
03!
04!
15!
0E!
0D!
0C!
0B!
0A!
0@!
0?!
0>!
0=!
0<!
0;!
0:!
09!
08!
07!
06!
$end
#5000
1!
1^
1_
07
#10000
0"
0!
0b
0^
0c
0_
17
#15000
1!
1^
1_
07
#20000
0!
0^
0_
17
#25000
1!
1^
1_
07
#30000
0!
0^
0_
17
#35000
1!
1^
1_
07
#40000
0!
0^
0_
17
#45000
1!
1^
1_
07
#50000
0!
0^
0_
17
#55000
1!
1^
1_
07
#60000
0!
0^
0_
17
#65000
1!
1^
1_
07
#70000
0!
0^
0_
17
#75000
1!
1^
1_
07
#80000
0!
0^
0_
17
#85000
1!
1^
1_
07
#90000
1&
0!
1d
0^
0_
17
1f
#95000
1!
1^
1_
07
1E!
1g
0`
1N
16
1h
1>
#100000
0&
0!
0d
0^
0_
17
0f
#105000
1!
1^
1_
07
#110000
0!
0^
0_
17
#115000
1!
1^
1_
07
#120000
0!
0^
0_
17
#125000
1!
1^
1_
07
#130000
0!
0^
0_
17
#135000
1!
1^
1_
07
#140000
0!
0^
0_
17
#145000
1!
1^
1_
07
#150000
0!
0^
0_
17
#155000
1!
1^
1_
07
#160000
0!
0^
0_
17
#165000
1!
1^
1_
07
#170000
0!
0^
0_
17
#175000
1!
1^
1_
07
#180000
0!
0^
0_
17
#185000
1!
1^
1_
07
#190000
0!
0^
0_
17
#195000
1!
1^
1_
07
#200000
0!
0^
0_
17
#205000
1!
1^
1_
07
#210000
1&
0!
1d
0^
0_
17
1f
#215000
1!
1^
1_
07
1D!
0E!
0j
0h
0g
1`
1O
0N
15
06
1k
1j
1h
1?
0>
0k
#220000
0&
0!
0d
0^
0_
17
0f
#225000
1!
1^
1_
07
#230000
0!
0^
0_
17
#235000
1!
1^
1_
07
#240000
0!
0^
0_
17
#245000
1!
1^
1_
07
#250000
0!
0^
0_
17
#255000
1!
1^
1_
07
#260000
0!
0^
0_
17
#265000
1!
1^
1_
07
#270000
0!
0^
0_
17
#275000
1!
1^
1_
07
#280000
0!
0^
0_
17
#285000
1!
1^
1_
07
#290000
0!
0^
0_
17
#295000
1!
1^
1_
07
#300000
1&
0!
1d
0^
0_
17
1f
#305000
1!
1^
1_
07
1E!
1g
0`
1N
16
0j
0h
1>
1k
#310000
0&
0!
0d
0^
0_
17
0f
#315000
1!
1^
1_
07
#320000
0!
0^
0_
17
#325000
1!
1^
1_
07
#330000
0!
0^
0_
17
#335000
1!
1^
1_
07
#340000
0!
0^
0_
17
#345000
1!
1^
1_
07
#350000
0!
0^
0_
17
#355000
1!
1^
1_
07
#360000
0!
0^
0_
17
#365000
1!
1^
1_
07
#370000
0!
0^
0_
17
#375000
1!
1^
1_
07
#380000
1&
0!
1d
0^
0_
17
1f
#385000
1!
1^
1_
07
1C!
0D!
0E!
1m
0k
1j
1h
0g
1`
1P
0O
0N
14
05
06
1n
0m
1k
0h
1@
0?
0>
0n
#390000
0&
0!
0d
0^
0_
17
0f
#395000
1!
1^
1_
07
#400000
0!
0^
0_
17
#405000
1!
1^
1_
07
#410000
0!
0^
0_
17
#415000
1!
1^
1_
07
#420000
0!
0^
0_
17
#425000
1!
1^
1_
07
#430000
0!
0^
0_
17
#435000
1!
1^
1_
07
#440000
0!
0^
0_
17
#445000
1!
1^
1_
07
#450000
0!
0^
0_
17
#455000
1!
1^
1_
07
#460000
0!
0^
0_
17
#465000
1!
1^
1_
07
#470000
0!
0^
0_
17
#475000
1!
1^
1_
07
#480000
0!
0^
0_
17
#485000
1!
1^
1_
07
#490000
0!
0^
0_
17
#495000
1!
1^
1_
07
#500000
0!
0^
0_
17
#505000
1!
1^
1_
07
#510000
0!
0^
0_
17
#515000
1!
1^
1_
07
#520000
0!
0^
0_
17
#525000
1!
1^
1_
07
#530000
0!
0^
0_
17
#535000
1!
1^
1_
07
#540000
0!
0^
0_
17
#545000
1!
1^
1_
07
#550000
0!
0^
0_
17
#555000
1!
1^
1_
07
#560000
0!
0^
0_
17
#565000
1!
1^
1_
07
#570000
0!
0^
0_
17
#575000
1!
1^
1_
07
#580000
0!
0^
0_
17
#585000
1!
1^
1_
07
#590000
0!
0^
0_
17
#595000
1!
1^
1_
07
#600000
1$
0!
1e
0^
0_
17
1f
#605000
1!
1^
1_
07
16!
19!
1:!
1>!
1?!
1B!
0C!
14!
1+!
1(!
1z
1w
1n
0k
1]
1Z
1Y
1U
1T
1Q
0P
1'
1*
1+
1/
10
13
04
1M
1J
1I
1E
1D
1A
0@
#610000
0$
0!
0e
0^
0_
17
0f
#615000
1!
1^
1_
07
#620000
0!
0^
0_
17
#625000
1!
1^
1_
07
#630000
0!
0^
0_
17
#635000
1!
1^
1_
07
#640000
0!
0^
0_
17
#645000
1!
1^
1_
07
#650000
0!
0^
0_
17
#655000
1!
1^
1_
07
#660000
0!
0^
0_
17
#665000
1!
1^
1_
07
#670000
0!
0^
0_
17
#675000
1!
1^
1_
07
#680000
0!
0^
0_
17
#685000
1!
1^
1_
07
#690000
0!
0^
0_
17
#695000
1!
1^
1_
07
#700000
0!
0^
0_
17
#705000
1!
1^
1_
07
#710000
0!
0^
0_
17
#715000
1!
1^
1_
07
#720000
0!
0^
0_
17
#725000
1!
1^
1_
07
#730000
0!
0^
0_
17
#735000
1!
1^
1_
07
#740000
0!
0^
0_
17
#745000
1!
1^
1_
07
#750000
0!
0^
0_
17
#755000
1!
1^
1_
07
#760000
0!
0^
0_
17
#765000
1!
1^
1_
07
#770000
0!
0^
0_
17
#775000
1!
1^
1_
07
#780000
0!
0^
0_
17
#785000
1!
1^
1_
07
#790000
0!
0^
0_
17
#795000
1!
1^
1_
07
#800000
0!
0^
0_
17
#805000
1!
1^
1_
07
#810000
0!
0^
0_
17
#815000
1!
1^
1_
07
#820000
0!
0^
0_
17
#825000
1!
1^
1_
07
#830000
1"
0!
1b
0^
1c
0_
17
0B!
0?!
0>!
0:!
09!
06!
0n
0w
0z
0(!
0+!
04!
0Q
0T
0U
0Y
0Z
0]
03
00
0/
0+
0*
0'
0A
0D
0E
0I
0J
0M
#835000
1!
1^
1_
07
#840000
0"
0!
0b
0^
0c
0_
17
#845000
1!
1^
1_
07
#850000
0!
0^
0_
17
#855000
1!
1^
1_
07
#860000
0!
0^
0_
17
#865000
1!
1^
1_
07
#870000
0!
0^
0_
17
#875000
1!
1^
1_
07
#880000
0!
0^
0_
17
#885000
1!
1^
1_
07
#890000
0!
0^
0_
17
#895000
1!
1^
1_
07
#900000
0!
0^
0_
17
#905000
1!
1^
1_
07
#910000
0!
0^
0_
17
#915000
1!
1^
1_
07
#920000
0!
0^
0_
17
#925000
1!
1^
1_
07
#930000
0!
0^
0_
17
#935000
1!
1^
1_
07
#940000
0!
0^
0_
17
#945000
1!
1^
1_
07
#950000
0!
0^
0_
17
#955000
1!
1^
1_
07
#960000
0!
0^
0_
17
#965000
1!
1^
1_
07
#970000
0!
0^
0_
17
#975000
1!
1^
1_
07
#980000
0!
0^
0_
17
#985000
1!
1^
1_
07
#990000
0!
0^
0_
17
#995000
1!
1^
1_
07
