Folder/DATAOP/simulation/qsim/data_op.msim.vcd
$comment
	File created using the following command:
		vcd file data_op.msim.vcd -direction
$end
$date
	Sat Apr 02 13:00:35 2022
$end
$version
	ModelSim Version 10.1d
$end
$timescale
	1ps
$end
$scope module data_op_vlg_vec_tst $end
$var reg 1 ! clk $end
$var reg 4 " Rp_addr [3:0] $end
$var reg 1 # Rp_rd $end
$var reg 4 $ Rq_addr [3:0] $end
$var reg 1 % Rq_rd $end
$var reg 4 & W_addr [3:0] $end
$var reg 16 ' W_data [15:0] $end
$var reg 1 ( W_wr $end
$var wire 1 ) Rp_data [15] $end
$var wire 1 * Rp_data [14] $end
$var wire 1 + Rp_data [13] $end
$var wire 1 , Rp_data [12] $end
$var wire 1 - Rp_data [11] $end
$var wire 1 . Rp_data [10] $end
$var wire 1 / Rp_data [9] $end
$var wire 1 0 Rp_data [8] $end
$var wire 1 1 Rp_data [7] $end
$var wire 1 2 Rp_data [6] $end
$var wire 1 3 Rp_data [5] $end
$var wire 1 4 Rp_data [4] $end
$var wire 1 5 Rp_data [3] $end
$var wire 1 6 Rp_data [2] $end
$var wire 1 7 Rp_data [1] $end
$var wire 1 8 Rp_data [0] $end
$var wire 1 9 Rq_data [15] $end
$var wire 1 : Rq_data [14] $end
$var wire 1 ; Rq_data [13] $end
$var wire 1 < Rq_data [12] $end
$var wire 1 = Rq_data [11] $end
$var wire 1 > Rq_data [10] $end
$var wire 1 ? Rq_data [9] $end
$var wire 1 @ Rq_data [8] $end
$var wire 1 A Rq_data [7] $end
$var wire 1 B Rq_data [6] $end
$var wire 1 C Rq_data [5] $end
$var wire 1 D Rq_data [4] $end
$var wire 1 E Rq_data [3] $end
$var wire 1 F Rq_data [2] $end
$var wire 1 G Rq_data [1] $end
$var wire 1 H Rq_data [0] $end
$var wire 1 I sampler $end
$scope module i1 $end
$var wire 1 J gnd $end
$var wire 1 K vcc $end
$var wire 1 L unknown $end
$var tri1 1 M devclrn $end
$var tri1 1 N devpor $end
$var tri1 1 O devoe $end
$var wire 1 P Rp_addr[0]~input_o $end
$var wire 1 Q Rp_addr[1]~input_o $end
$var wire 1 R Rp_addr[2]~input_o $end
$var wire 1 S Rp_addr[3]~input_o $end
$var wire 1 T Rp_data[0]~output_o $end
$var wire 1 U Rp_data[1]~output_o $end
$var wire 1 V Rp_data[2]~output_o $end
$var wire 1 W Rp_data[3]~output_o $end
$var wire 1 X Rp_data[4]~output_o $end
$var wire 1 Y Rp_data[5]~output_o $end
$var wire 1 Z Rp_data[6]~output_o $end
$var wire 1 [ Rp_data[7]~output_o $end
$var wire 1 \ Rp_data[8]~output_o $end
$var wire 1 ] Rp_data[9]~output_o $end
$var wire 1 ^ Rp_data[10]~output_o $end
$var wire 1 _ Rp_data[11]~output_o $end
$var wire 1 ` Rp_data[12]~output_o $end
$var wire 1 a Rp_data[13]~output_o $end
$var wire 1 b Rp_data[14]~output_o $end
$var wire 1 c Rp_data[15]~output_o $end
$var wire 1 d Rq_data[0]~output_o $end
$var wire 1 e Rq_data[1]~output_o $end
$var wire 1 f Rq_data[2]~output_o $end
$var wire 1 g Rq_data[3]~output_o $end
$var wire 1 h Rq_data[4]~output_o $end
$var wire 1 i Rq_data[5]~output_o $end
$var wire 1 j Rq_data[6]~output_o $end
$var wire 1 k Rq_data[7]~output_o $end
$var wire 1 l Rq_data[8]~output_o $end
$var wire 1 m Rq_data[9]~output_o $end
$var wire 1 n Rq_data[10]~output_o $end
$var wire 1 o Rq_data[11]~output_o $end
$var wire 1 p Rq_data[12]~output_o $end
$var wire 1 q Rq_data[13]~output_o $end
$var wire 1 r Rq_data[14]~output_o $end
$var wire 1 s Rq_data[15]~output_o $end
$var wire 1 t W_wr~input_o $end
$var wire 1 u clk~input_o $end
$var wire 1 v clk~inputclkctrl_outclk $end
$var wire 1 w Rp_rd~input_o $end
$var wire 1 x W_data[0]~input_o $end
$var wire 1 y W_addr[0]~input_o $end
$var wire 1 z W_addr[1]~input_o $end
$var wire 1 { W_addr[2]~input_o $end
$var wire 1 | W_addr[3]~input_o $end
$var wire 1 } Rq_addr[0]~input_o $end
$var wire 1 ~ Rq_addr[1]~input_o $end
$var wire 1 !! Rq_addr[2]~input_o $end
$var wire 1 "! Rq_addr[3]~input_o $end
$var wire 1 #! W_data[1]~input_o $end
$var wire 1 $! W_data[2]~input_o $end
$var wire 1 %! W_data[3]~input_o $end
$var wire 1 &! W_data[4]~input_o $end
$var wire 1 '! W_data[5]~input_o $end
$var wire 1 (! W_data[6]~input_o $end
$var wire 1 )! W_data[7]~input_o $end
$var wire 1 *! W_data[8]~input_o $end
$var wire 1 +! W_data[9]~input_o $end
$var wire 1 ,! W_data[10]~input_o $end
$var wire 1 -! W_data[11]~input_o $end
$var wire 1 .! W_data[12]~input_o $end
$var wire 1 /! W_data[13]~input_o $end
$var wire 1 0! W_data[14]~input_o $end
$var wire 1 1! W_data[15]~input_o $end
$var wire 1 2! reg_rtl_1|auto_generated|ram_block1a0~portbdataout $end
$var wire 1 3! reg_rtl_1|auto_generated|ram_block1a1 $end
$var wire 1 4! reg_rtl_1|auto_generated|ram_block1a2 $end
$var wire 1 5! reg_rtl_1|auto_generated|ram_block1a3 $end
$var wire 1 6! reg_rtl_1|auto_generated|ram_block1a4 $end
$var wire 1 7! reg_rtl_1|auto_generated|ram_block1a5 $end
$var wire 1 8! reg_rtl_1|auto_generated|ram_block1a6 $end
$var wire 1 9! reg_rtl_1|auto_generated|ram_block1a7 $end
$var wire 1 :! reg_rtl_1|auto_generated|ram_block1a8 $end
$var wire 1 ;! reg_rtl_1|auto_generated|ram_block1a9 $end
$var wire 1 <! reg_rtl_1|auto_generated|ram_block1a10 $end
$var wire 1 =! reg_rtl_1|auto_generated|ram_block1a11 $end
$var wire 1 >! reg_rtl_1|auto_generated|ram_block1a12 $end
$var wire 1 ?! reg_rtl_1|auto_generated|ram_block1a13 $end
$var wire 1 @! reg_rtl_1|auto_generated|ram_block1a14 $end
$var wire 1 A! reg_rtl_1|auto_generated|ram_block1a15 $end
$var wire 1 B! Rq_rd~input_o $end
$var wire 1 C! reg_rtl_0|auto_generated|ram_block1a0~portbdataout $end
$var wire 1 D! reg_rtl_0|auto_generated|ram_block1a1 $end
$var wire 1 E! reg_rtl_0|auto_generated|ram_block1a2 $end
$var wire 1 F! reg_rtl_0|auto_generated|ram_block1a3 $end
$var wire 1 G! reg_rtl_0|auto_generated|ram_block1a4 $end
$var wire 1 H! reg_rtl_0|auto_generated|ram_block1a5 $end
$var wire 1 I! reg_rtl_0|auto_generated|ram_block1a6 $end
$var wire 1 J! reg_rtl_0|auto_generated|ram_block1a7 $end
$var wire 1 K! reg_rtl_0|auto_generated|ram_block1a8 $end
$var wire 1 L! reg_rtl_0|auto_generated|ram_block1a9 $end
$var wire 1 M! reg_rtl_0|auto_generated|ram_block1a10 $end
$var wire 1 N! reg_rtl_0|auto_generated|ram_block1a11 $end
$var wire 1 O! reg_rtl_0|auto_generated|ram_block1a12 $end
$var wire 1 P! reg_rtl_0|auto_generated|ram_block1a13 $end
$var wire 1 Q! reg_rtl_0|auto_generated|ram_block1a14 $end
$var wire 1 R! reg_rtl_0|auto_generated|ram_block1a15 $end
$var wire 1 S! reg_rtl_1|auto_generated|ram_block1a0_PORTBDATAOUT_bus [35] $end
$var wire 1 T! reg_rtl_1|auto_generated|ram_block1a0_PORTBDATAOUT_bus [34] $end
$var wire 1 U! reg_rtl_1|auto_generated|ram_block1a0_PORTBDATAOUT_bus [33] $end
$var wire 1 V! reg_rtl_1|auto_generated|ram_block1a0_PORTBDATAOUT_bus [32] $end
$var wire 1 W! reg_rtl_1|auto_generated|ram_block1a0_PORTBDATAOUT_bus [31] $end
$var wire 1 X! reg_rtl_1|auto_generated|ram_block1a0_PORTBDATAOUT_bus [30] $end
$var wire 1 Y! reg_rtl_1|auto_generated|ram_block1a0_PORTBDATAOUT_bus [29] $end
$var wire 1 Z! reg_rtl_1|auto_generated|ram_block1a0_PORTBDATAOUT_bus [28] $end
$var wire 1 [! reg_rtl_1|auto_generated|ram_block1a0_PORTBDATAOUT_bus [27] $end
$var wire 1 \! reg_rtl_1|auto_generated|ram_block1a0_PORTBDATAOUT_bus [26] $end
$var wire 1 ]! reg_rtl_1|auto_generated|ram_block1a0_PORTBDATAOUT_bus [25] $end
$var wire 1 ^! reg_rtl_1|auto_generated|ram_block1a0_PORTBDATAOUT_bus [24] $end
$var wire 1 _! reg_rtl_1|auto_generated|ram_block1a0_PORTBDATAOUT_bus [23] $end
$var wire 1 `! reg_rtl_1|auto_generated|ram_block1a0_PORTBDATAOUT_bus [22] $end
$var wire 1 a! reg_rtl_1|auto_generated|ram_block1a0_PORTBDATAOUT_bus [21] $end
$var wire 1 b! reg_rtl_1|auto_generated|ram_block1a0_PORTBDATAOUT_bus [20] $end
$var wire 1 c! reg_rtl_1|auto_generated|ram_block1a0_PORTBDATAOUT_bus [19] $end
$var wire 1 d! reg_rtl_1|auto_generated|ram_block1a0_PORTBDATAOUT_bus [18] $end
$var wire 1 e! reg_rtl_1|auto_generated|ram_block1a0_PORTBDATAOUT_bus [17] $end
$var wire 1 f! reg_rtl_1|auto_generated|ram_block1a0_PORTBDATAOUT_bus [16] $end
$var wire 1 g! reg_rtl_1|auto_generated|ram_block1a0_PORTBDATAOUT_bus [15] $end
$var wire 1 h! reg_rtl_1|auto_generated|ram_block1a0_PORTBDATAOUT_bus [14] $end
$var wire 1 i! reg_rtl_1|auto_generated|ram_block1a0_PORTBDATAOUT_bus [13] $end
$var wire 1 j! reg_rtl_1|auto_generated|ram_block1a0_PORTBDATAOUT_bus [12] $end
$var wire 1 k! reg_rtl_1|auto_generated|ram_block1a0_PORTBDATAOUT_bus [11] $end
$var wire 1 l! reg_rtl_1|auto_generated|ram_block1a0_PORTBDATAOUT_bus [10] $end
$var wire 1 m! reg_rtl_1|auto_generated|ram_block1a0_PORTBDATAOUT_bus [9] $end
$var wire 1 n! reg_rtl_1|auto_generated|ram_block1a0_PORTBDATAOUT_bus [8] $end
$var wire 1 o! reg_rtl_1|auto_generated|ram_block1a0_PORTBDATAOUT_bus [7] $end
$var wire 1 p! reg_rtl_1|auto_generated|ram_block1a0_PORTBDATAOUT_bus [6] $end
$var wire 1 q! reg_rtl_1|auto_generated|ram_block1a0_PORTBDATAOUT_bus [5] $end
$var wire 1 r! reg_rtl_1|auto_generated|ram_block1a0_PORTBDATAOUT_bus [4] $end
$var wire 1 s! reg_rtl_1|auto_generated|ram_block1a0_PORTBDATAOUT_bus [3] $end
$var wire 1 t! reg_rtl_1|auto_generated|ram_block1a0_PORTBDATAOUT_bus [2] $end
$var wire 1 u! reg_rtl_1|auto_generated|ram_block1a0_PORTBDATAOUT_bus [1] $end
$var wire 1 v! reg_rtl_1|auto_generated|ram_block1a0_PORTBDATAOUT_bus [0] $end
$var wire 1 w! reg_rtl_0|auto_generated|ram_block1a0_PORTBDATAOUT_bus [35] $end
$var wire 1 x! reg_rtl_0|auto_generated|ram_block1a0_PORTBDATAOUT_bus [34] $end
$var wire 1 y! reg_rtl_0|auto_generated|ram_block1a0_PORTBDATAOUT_bus [33] $end
$var wire 1 z! reg_rtl_0|auto_generated|ram_block1a0_PORTBDATAOUT_bus [32] $end
$var wire 1 {! reg_rtl_0|auto_generated|ram_block1a0_PORTBDATAOUT_bus [31] $end
$var wire 1 |! reg_rtl_0|auto_generated|ram_block1a0_PORTBDATAOUT_bus [30] $end
$var wire 1 }! reg_rtl_0|auto_generated|ram_block1a0_PORTBDATAOUT_bus [29] $end
$var wire 1 ~! reg_rtl_0|auto_generated|ram_block1a0_PORTBDATAOUT_bus [28] $end
$var wire 1 !" reg_rtl_0|auto_generated|ram_block1a0_PORTBDATAOUT_bus [27] $end
$var wire 1 "" reg_rtl_0|auto_generated|ram_block1a0_PORTBDATAOUT_bus [26] $end
$var wire 1 #" reg_rtl_0|auto_generated|ram_block1a0_PORTBDATAOUT_bus [25] $end
$var wire 1 $" reg_rtl_0|auto_generated|ram_block1a0_PORTBDATAOUT_bus [24] $end
$var wire 1 %" reg_rtl_0|auto_generated|ram_block1a0_PORTBDATAOUT_bus [23] $end
$var wire 1 &" reg_rtl_0|auto_generated|ram_block1a0_PORTBDATAOUT_bus [22] $end
$var wire 1 '" reg_rtl_0|auto_generated|ram_block1a0_PORTBDATAOUT_bus [21] $end
$var wire 1 (" reg_rtl_0|auto_generated|ram_block1a0_PORTBDATAOUT_bus [20] $end
$var wire 1 )" reg_rtl_0|auto_generated|ram_block1a0_PORTBDATAOUT_bus [19] $end
$var wire 1 *" reg_rtl_0|auto_generated|ram_block1a0_PORTBDATAOUT_bus [18] $end
$var wire 1 +" reg_rtl_0|auto_generated|ram_block1a0_PORTBDATAOUT_bus [17] $end
$var wire 1 ," reg_rtl_0|auto_generated|ram_block1a0_PORTBDATAOUT_bus [16] $end
$var wire 1 -" reg_rtl_0|auto_generated|ram_block1a0_PORTBDATAOUT_bus [15] $end
$var wire 1 ." reg_rtl_0|auto_generated|ram_block1a0_PORTBDATAOUT_bus [14] $end
$var wire 1 /" reg_rtl_0|auto_generated|ram_block1a0_PORTBDATAOUT_bus [13] $end
$var wire 1 0" reg_rtl_0|auto_generated|ram_block1a0_PORTBDATAOUT_bus [12] $end
$var wire 1 1" reg_rtl_0|auto_generated|ram_block1a0_PORTBDATAOUT_bus [11] $end
$var wire 1 2" reg_rtl_0|auto_generated|ram_block1a0_PORTBDATAOUT_bus [10] $end
$var wire 1 3" reg_rtl_0|auto_generated|ram_block1a0_PORTBDATAOUT_bus [9] $end
$var wire 1 4" reg_rtl_0|auto_generated|ram_block1a0_PORTBDATAOUT_bus [8] $end
$var wire 1 5" reg_rtl_0|auto_generated|ram_block1a0_PORTBDATAOUT_bus [7] $end
$var wire 1 6" reg_rtl_0|auto_generated|ram_block1a0_PORTBDATAOUT_bus [6] $end
$var wire 1 7" reg_rtl_0|auto_generated|ram_block1a0_PORTBDATAOUT_bus [5] $end
$var wire 1 8" reg_rtl_0|auto_generated|ram_block1a0_PORTBDATAOUT_bus [4] $end
$var wire 1 9" reg_rtl_0|auto_generated|ram_block1a0_PORTBDATAOUT_bus [3] $end
$var wire 1 :" reg_rtl_0|auto_generated|ram_block1a0_PORTBDATAOUT_bus [2] $end
$var wire 1 ;" reg_rtl_0|auto_generated|ram_block1a0_PORTBDATAOUT_bus [1] $end
$var wire 1 <" reg_rtl_0|auto_generated|ram_block1a0_PORTBDATAOUT_bus [0] $end
$upscope $end
$upscope $end
$enddefinitions $end
#0
$dumpvars
0!
b0 "
0#
b0 $
0%
b0 &
b1 '
0(
08
07
06
05
04
03
02
01
00
0/
0.
0-
0,
0+
0*
0)
0H
0G
0F
0E
0D
0C
0B
0A
0@
0?
0>
0=
0<
0;
0:
09
xI
0J
1K
xL
1M
1N
1O
0P
0Q
0R
0S
0T
0U
0V
0W
0X
0Y
0Z
0[
0\
0]
0^
0_
0`
0a
0b
0c
0d
0e
0f
0g
0h
0i
0j
0k
0l
0m
0n
0o
0p
0q
0r
0s
0t
0u
0v
0w
1x
0y
0z
0{
0|
0}
0~
0!!
0"!
0#!
0$!
0%!
0&!
0'!
0(!
0)!
0*!
0+!
0,!
0-!
0.!
0/!
00!
01!
02!
03!
04!
05!
06!
07!
08!
09!
0:!
0;!
0<!
0=!
0>!
0?!
0@!
0A!
0B!
0C!
0D!
0E!
0F!
0G!
0H!
0I!
0J!
0K!
0L!
0M!
0N!
0O!
0P!
0Q!
0R!
0v!
0u!
0t!
0s!
0r!
0q!
0p!
0o!
0n!
0m!
0l!
0k!
0j!
0i!
0h!
0g!
0f!
0e!
0d!
0c!
0b!
0a!
0`!
0_!
0^!
0]!
0\!
0[!
0Z!
0Y!
0X!
0W!
0V!
0U!
0T!
0S!
0<"
0;"
0:"
09"
08"
07"
06"
05"
04"
03"
02"
01"
00"
0/"
0."
0-"
0,"
0+"
0*"
0)"
0("
0'"
0&"
0%"
0$"
0#"
0""
0!"
0~!
0}!
0|!
0{!
0z!
0y!
0x!
0w!
$end
#5000
1!
1u
1v
0I
#10000
0!
0u
0v
1I
#15000
1!
1u
1v
0I
#20000
0!
0u
0v
1I
#25000
1!
1u
1v
0I
#30000
0!
0u
0v
1I
#35000
1!
1u
1v
0I
#40000
0!
0u
0v
1I
#45000
1!
1u
1v
0I
#50000
1#
0!
1w
0u
0v
1I
#55000
1!
1u
1v
0I
#60000
0#
0!
0w
0u
0v
1I
#65000
1!
1u
1v
0I
#70000
0!
0u
0v
1I
#75000
1!
1u
1v
0I
#80000
0!
0u
0v
1I
#85000
1!
1u
1v
0I
#90000
0!
0u
0v
1I
#95000
1!
1u
1v
0I
#100000
0!
0u
0v
1I
#105000
1!
1u
1v
0I
#110000
0!
0u
0v
1I
#115000
1!
1u
1v
0I
#120000
0!
0u
0v
1I
#125000
1!
1u
1v
0I
#130000
0!
0u
0v
1I
#135000
1!
1u
1v
0I
#140000
0!
0u
0v
1I
#145000
1!
1u
1v
0I
#150000
0!
0u
0v
1I
#155000
1!
1u
1v
0I
#160000
0!
0u
0v
1I
#165000
1!
1u
1v
0I
#170000
0!
0u
0v
1I
#175000
1!
1u
1v
0I
#180000
0!
0u
0v
1I
#185000
1!
1u
1v
0I
#190000
0!
0u
0v
1I
#195000
1!
1u
1v
0I
#200000
0!
0u
0v
1I
#205000
1!
1u
1v
0I
#210000
0!
0u
0v
1I
#215000
1!
1u
1v
0I
#220000
0!
0u
0v
1I
#225000
1!
1u
1v
0I
#230000
0!
0u
0v
1I
#235000
1!
1u
1v
0I
#240000
0!
0u
0v
1I
#245000
1!
1u
1v
0I
#250000
0!
0u
0v
1I
#255000
1!
1u
1v
0I
#260000
0!
0u
0v
1I
#265000
1!
1u
1v
0I
#270000
0!
0u
0v
1I
#275000
1!
1u
1v
0I
#280000
0!
0u
0v
1I
#285000
1!
1u
1v
0I
#290000
0!
0u
0v
1I
#295000
1!
1u
1v
0I
#300000
0!
0u
0v
1I
#305000
1!
1u
1v
0I
#310000
0!
0u
0v
1I
#315000
1!
1u
1v
0I
#320000
0!
0u
0v
1I
#325000
1!
1u
1v
0I
#330000
0!
0u
0v
1I
#335000
1!
1u
1v
0I
#340000
0!
0u
0v
1I
#345000
1!
1u
1v
0I
#350000
0!
0u
0v
1I
#355000
1!
1u
1v
0I
#360000
0!
0u
0v
1I
#365000
1!
1u
1v
0I
#370000
0!
0u
0v
1I
#375000
1!
1u
1v
0I
#380000
1%
0!
1B!
0u
0v
1I
#385000
1!
1u
1v
0I
#390000
0%
0!
0B!
0u
0v
1I
#395000
1!
1u
1v
0I
#400000
0!
0u
0v
1I
#405000
1!
1u
1v
0I
#410000
0!
0u
0v
1I
#415000
1!
1u
1v
0I
#420000
0!
0u
0v
1I
#425000
1!
1u
1v
0I
#430000
0!
0u
0v
1I
#435000
1!
1u
1v
0I
#440000
0!
0u
0v
1I
#445000
1!
1u
1v
0I
#450000
0!
0u
0v
1I
#455000
1!
1u
1v
0I
#460000
0!
0u
0v
1I
#465000
1!
1u
1v
0I
#470000
0!
0u
0v
1I
#475000
1!
1u
1v
0I
#480000
0!
0u
0v
1I
#485000
1!
1u
1v
0I
#490000
0!
0u
0v
1I
#495000
1!
1u
1v
0I
#500000
0!
0u
0v
1I
#505000
1!
1u
1v
0I
#510000
0!
0u
0v
1I
#515000
1!
1u
1v
0I
#520000
0!
0u
0v
1I
#525000
1!
1u
1v
0I
#530000
0!
0u
0v
1I
#535000
1!
1u
1v
0I
#540000
0!
0u
0v
1I
#545000
1!
1u
1v
0I
#550000
0!
0u
0v
1I
#555000
1!
1u
1v
0I
#560000
0!
0u
0v
1I
#565000
1!
1u
1v
0I
#570000
0!
0u
0v
1I
#575000
1!
1u
1v
0I
#580000
0!
0u
0v
1I
#585000
1!
1u
1v
0I
#590000
0!
0u
0v
1I
#595000
1!
1u
1v
0I
#600000
0!
0u
0v
1I
#605000
1!
1u
1v
0I
#610000
0!
0u
0v
1I
#615000
1!
1u
1v
0I
#620000
0!
0u
0v
1I
#625000
1!
1u
1v
0I
#630000
0!
0u
0v
1I
#635000
1!
1u
1v
0I
#640000
0!
0u
0v
1I
#645000
1!
1u
1v
0I
#650000
0!
0u
0v
1I
#655000
1!
1u
1v
0I
#660000
0!
0u
0v
1I
#665000
1!
1u
1v
0I
#670000
0!
0u
0v
1I
#675000
1!
1u
1v
0I
#680000
0!
0u
0v
1I
#685000
1!
1u
1v
0I
#690000
0!
0u
0v
1I
#695000
1!
1u
1v
0I
#700000
0!
0u
0v
1I
#705000
1!
1u
1v
0I
#710000
1(
0!
1t
0u
0v
1I
#715000
1!
1u
1v
0I
#720000
0(
0!
0t
0u
0v
1I
#725000
1!
1u
1v
0I
#730000
0!
0u
0v
1I
#735000
1!
1u
1v
0I
#740000
0!
0u
0v
1I
#745000
1!
1u
1v
0I
#750000
0!
0u
0v
1I
#755000
1!
1u
1v
0I
#760000
0!
0u
0v
1I
#765000
1!
1u
1v
0I
#770000
0!
0u
0v
1I
#775000
1!
1u
1v
0I
#780000
0!
0u
0v
1I
#785000
1!
1u
1v
0I
#790000
0!
0u
0v
1I
#795000
1!
1u
1v
0I
#800000
0!
0u
0v
1I
#805000
1!
1u
1v
0I
#810000
0!
0u
0v
1I
#815000
1!
1u
1v
0I
#820000
0!
0u
0v
1I
#825000
1!
1u
1v
0I
#830000
0!
0u
0v
1I
#835000
1!
1u
1v
0I
#840000
0!
0u
0v
1I
#845000
1!
1u
1v
0I
#850000
0!
0u
0v
1I
#855000
1!
1u
1v
0I
#860000
0!
0u
0v
1I
#865000
1!
1u
1v
0I
#870000
0!
0u
0v
1I
#875000
1!
1u
1v
0I
#880000
0!
0u
0v
1I
#885000
1!
1u
1v
0I
#890000
0!
0u
0v
1I
#895000
1!
1u
1v
0I
#900000
0!
0u
0v
1I
#905000
1!
1u
1v
0I
#910000
0!
0u
0v
1I
#915000
1!
1u
1v
0I
#920000
0!
0u
0v
1I
#925000
1!
1u
1v
0I
#930000
0!
0u
0v
1I
#935000
1!
1u
1v
0I
#940000
0!
0u
0v
1I
#945000
1!
1u
1v
0I
#950000
0!
0u
0v
1I
#955000
1!
1u
1v
0I
#960000
0!
0u
0v
1I
#965000
1!
1u
1v
0I
#970000
0!
0u
0v
1I
#975000
1!
1u
1v
0I
#980000
0!
0u
0v
1I
#985000
1!
1u
1v
0I
#990000
0!
0u
0v
1I
#995000
1!
1u
1v
0I
