Folder/FSM/simulation/qsim/FSM.msim.vcd
$comment
	File created using the following command:
		vcd file FSM.msim.vcd -direction
$end
$date
	Sun Apr 03 12:02:59 2022
$end
$version
	ModelSim Version 10.1d
$end
$timescale
	1ps
$end
$scope module FSM_vlg_vec_tst $end
$var reg 1 ! clk $end
$var reg 16 " d [15:0] $end
$var reg 1 # RF_Rp_zero $end
$var reg 1 $ rst $end
$var wire 1 % alu_s0 $end
$var wire 1 & alu_s1 $end
$var wire 1 ' D_addr [7] $end
$var wire 1 ( D_addr [6] $end
$var wire 1 ) D_addr [5] $end
$var wire 1 * D_addr [4] $end
$var wire 1 + D_addr [3] $end
$var wire 1 , D_addr [2] $end
$var wire 1 - D_addr [1] $end
$var wire 1 . D_addr [0] $end
$var wire 1 / D_rd $end
$var wire 1 0 D_wr $end
$var wire 1 1 I_rd $end
$var wire 1 2 IR_ld $end
$var wire 1 3 PC_clr $end
$var wire 1 4 PC_inc $end
$var wire 1 5 PC_ld $end
$var wire 1 6 RF_Rp_addr [3] $end
$var wire 1 7 RF_Rp_addr [2] $end
$var wire 1 8 RF_Rp_addr [1] $end
$var wire 1 9 RF_Rp_addr [0] $end
$var wire 1 : RF_Rp_rd $end
$var wire 1 ; RF_Rq_addr [3] $end
$var wire 1 < RF_Rq_addr [2] $end
$var wire 1 = RF_Rq_addr [1] $end
$var wire 1 > RF_Rq_addr [0] $end
$var wire 1 ? RF_Rq_rd $end
$var wire 1 @ RF_s0 $end
$var wire 1 A RF_s1 $end
$var wire 1 B RF_w_addr [3] $end
$var wire 1 C RF_w_addr [2] $end
$var wire 1 D RF_w_addr [1] $end
$var wire 1 E RF_w_addr [0] $end
$var wire 1 F RF_W_wr $end
$var wire 1 G saida [3] $end
$var wire 1 H saida [2] $end
$var wire 1 I saida [1] $end
$var wire 1 J saida [0] $end
$var wire 1 K sampler $end
$scope module i1 $end
$var wire 1 L gnd $end
$var wire 1 M vcc $end
$var wire 1 N unknown $end
$var tri1 1 O devclrn $end
$var tri1 1 P devpor $end
$var tri1 1 Q devoe $end
$var wire 1 R RF_s1~output_o $end
$var wire 1 S RF_s0~output_o $end
$var wire 1 T PC_clr~output_o $end
$var wire 1 U I_rd~output_o $end
$var wire 1 V PC_inc~output_o $end
$var wire 1 W IR_ld~output_o $end
$var wire 1 X RF_W_wr~output_o $end
$var wire 1 Y D_wr~output_o $end
$var wire 1 Z RF_Rp_rd~output_o $end
$var wire 1 [ PC_ld~output_o $end
$var wire 1 \ alu_s0~output_o $end
$var wire 1 ] alu_s1~output_o $end
$var wire 1 ^ D_rd~output_o $end
$var wire 1 _ RF_Rq_rd~output_o $end
$var wire 1 ` RF_w_addr[0]~output_o $end
$var wire 1 a RF_w_addr[1]~output_o $end
$var wire 1 b RF_w_addr[2]~output_o $end
$var wire 1 c RF_w_addr[3]~output_o $end
$var wire 1 d RF_Rp_addr[0]~output_o $end
$var wire 1 e RF_Rp_addr[1]~output_o $end
$var wire 1 f RF_Rp_addr[2]~output_o $end
$var wire 1 g RF_Rp_addr[3]~output_o $end
$var wire 1 h RF_Rq_addr[0]~output_o $end
$var wire 1 i RF_Rq_addr[1]~output_o $end
$var wire 1 j RF_Rq_addr[2]~output_o $end
$var wire 1 k RF_Rq_addr[3]~output_o $end
$var wire 1 l D_addr[0]~output_o $end
$var wire 1 m D_addr[1]~output_o $end
$var wire 1 n D_addr[2]~output_o $end
$var wire 1 o D_addr[3]~output_o $end
$var wire 1 p D_addr[4]~output_o $end
$var wire 1 q D_addr[5]~output_o $end
$var wire 1 r D_addr[6]~output_o $end
$var wire 1 s D_addr[7]~output_o $end
$var wire 1 t saida[0]~output_o $end
$var wire 1 u saida[1]~output_o $end
$var wire 1 v saida[2]~output_o $end
$var wire 1 w saida[3]~output_o $end
$var wire 1 x clk~input_o $end
$var wire 1 y clk~inputclkctrl_outclk $end
$var wire 1 z d[12]~input_o $end
$var wire 1 { d[13]~input_o $end
$var wire 1 | d[14]~input_o $end
$var wire 1 } d[15]~input_o $end
$var wire 1 ~ estado~27_combout $end
$var wire 1 !! estado~30_combout $end
$var wire 1 "! rst~input_o $end
$var wire 1 #! rst~inputclkctrl_outclk $end
$var wire 1 $! estado.saltar_se_zero~q $end
$var wire 1 %! RF_Rp_zero~input_o $end
$var wire 1 &! Selector1~0_combout $end
$var wire 1 '! estado.busca~q $end
$var wire 1 (! Selector2~0_combout $end
$var wire 1 )! Selector2~1_combout $end
$var wire 1 *! estado.decodificacao~q $end
$var wire 1 +! estado~24_combout $end
$var wire 1 ,! estado~31_combout $end
$var wire 1 -! estado.carregar_constante~q $end
$var wire 1 .! RF_s1~reg0feeder_combout $end
$var wire 1 /! estado.inicio~feeder_combout $end
$var wire 1 0! estado.inicio~q $end
$var wire 1 1! WideOr10~0_combout $end
$var wire 1 2! RF_s1~1_combout $end
$var wire 1 3! RF_s1~reg0_q $end
$var wire 1 4! estado~29_combout $end
$var wire 1 5! estado.armazenar~q $end
$var wire 1 6! RF_s1~2_combout $end
$var wire 1 7! RF_s1~en_q $end
$var wire 1 8! estado~28_combout $end
$var wire 1 9! estado.subtrair~q $end
$var wire 1 :! WideOr5~1_combout $end
$var wire 1 ;! RF_s0~reg0_q $end
$var wire 1 <! RF_s0~1_combout $end
$var wire 1 =! RF_s0~en_q $end
$var wire 1 >! Selector8~0_combout $end
$var wire 1 ?! alu_s0~reg0_q $end
$var wire 1 @! estado~26_combout $end
$var wire 1 A! estado.somar~q $end
$var wire 1 B! Selector7~0_combout $end
$var wire 1 C! alu_s1~reg0_q $end
$var wire 1 D! d[8]~input_o $end
$var wire 1 E! RF_w_addr[0]~reg0feeder_combout $end
$var wire 1 F! WideOr5~0_combout $end
$var wire 1 G! estado~25_combout $end
$var wire 1 H! estado.carregar~q $end
$var wire 1 I! RF_w_addr[0]~0_combout $end
$var wire 1 J! RF_w_addr[0]~reg0_q $end
$var wire 1 K! d[9]~input_o $end
$var wire 1 L! RF_w_addr[1]~reg0_q $end
$var wire 1 M! d[10]~input_o $end
$var wire 1 N! RF_w_addr[2]~reg0_q $end
$var wire 1 O! d[11]~input_o $end
$var wire 1 P! RF_w_addr[3]~reg0_q $end
$var wire 1 Q! d[4]~input_o $end
$var wire 1 R! Selector6~0_combout $end
$var wire 1 S! RF_Rp_addr[0]~0_combout $end
$var wire 1 T! RF_Rp_addr[0]~reg0_q $end
$var wire 1 U! d[5]~input_o $end
$var wire 1 V! Selector5~0_combout $end
$var wire 1 W! RF_Rp_addr[1]~reg0_q $end
$var wire 1 X! d[6]~input_o $end
$var wire 1 Y! Selector4~0_combout $end
$var wire 1 Z! RF_Rp_addr[2]~reg0_q $end
$var wire 1 [! d[7]~input_o $end
$var wire 1 \! Selector3~0_combout $end
$var wire 1 ]! RF_Rp_addr[3]~reg0_q $end
$var wire 1 ^! d[0]~input_o $end
$var wire 1 _! RF_Rq_addr[0]~0_combout $end
$var wire 1 `! RF_Rq_addr[0]~reg0_q $end
$var wire 1 a! d[1]~input_o $end
$var wire 1 b! RF_Rq_addr[1]~reg0feeder_combout $end
$var wire 1 c! RF_Rq_addr[1]~reg0_q $end
$var wire 1 d! d[2]~input_o $end
$var wire 1 e! RF_Rq_addr[2]~reg0feeder_combout $end
$var wire 1 f! RF_Rq_addr[2]~reg0_q $end
$var wire 1 g! d[3]~input_o $end
$var wire 1 h! RF_Rq_addr[3]~reg0feeder_combout $end
$var wire 1 i! RF_Rq_addr[3]~reg0_q $end
$var wire 1 j! D_addr[0]~0_combout $end
$var wire 1 k! D_addr[0]~reg0_q $end
$var wire 1 l! D_addr[1]~reg0feeder_combout $end
$var wire 1 m! D_addr[1]~reg0_q $end
$var wire 1 n! D_addr[2]~reg0feeder_combout $end
$var wire 1 o! D_addr[2]~reg0_q $end
$var wire 1 p! D_addr[3]~reg0feeder_combout $end
$var wire 1 q! D_addr[3]~reg0_q $end
$var wire 1 r! D_addr[4]~reg0_q $end
$var wire 1 s! D_addr[5]~reg0feeder_combout $end
$var wire 1 t! D_addr[5]~reg0_q $end
$var wire 1 u! D_addr[6]~reg0_q $end
$var wire 1 v! D_addr[7]~reg0feeder_combout $end
$var wire 1 w! D_addr[7]~reg0_q $end
$var wire 1 x! Selector0~0_combout $end
$var wire 1 y! estado.saltar~q $end
$var wire 1 z! WideOr13~combout $end
$var wire 1 {! WideOr12~0_combout $end
$var wire 1 |! WideOr12~combout $end
$var wire 1 }! WideOr11~0_combout $end
$upscope $end
$upscope $end
$enddefinitions $end
#0
$dumpvars
0!
b11001001000 "
0#
1$
0%
0&
0.
0-
0,
0+
0*
0)
0(
0'
1/
10
11
12
13
14
15
09
08
07
06
1:
0>
0=
0<
0;
1?
z@
zA
0E
0D
0C
0B
1F
1J
1I
1H
1G
xK
0L
1M
xN
1O
1P
1Q
zR
zS
1T
1U
1V
1W
1X
1Y
1Z
1[
0\
0]
1^
1_
0`
0a
0b
0c
0d
0e
0f
0g
0h
0i
0j
0k
0l
0m
0n
0o
0p
0q
0r
0s
1t
1u
1v
1w
0x
0y
0z
0{
0|
0}
0~
0!!
1"!
1#!
0$!
0%!
1&!
0'!
0(!
0)!
0*!
0+!
0,!
0-!
0.!
1/!
00!
01!
02!
03!
04!
05!
16!
07!
08!
09!
1:!
0;!
1<!
0=!
0>!
0?!
0@!
0A!
0B!
0C!
0D!
0E!
1F!
0G!
0H!
0I!
0J!
1K!
0L!
1M!
0N!
0O!
0P!
0Q!
0R!
0S!
0T!
0U!
1V!
0W!
1X!
1Y!
0Z!
0[!
0\!
0]!
0^!
0_!
0`!
0a!
0b!
0c!
0d!
0e!
0f!
1g!
1h!
0i!
0j!
0k!
0l!
0m!
0n!
0o!
1p!
0q!
0r!
0s!
0t!
0u!
0v!
0w!
0x!
0y!
0z!
0{!
0|!
0}!
$end
#5000
1!
1x
1y
0K
#10000
0$
0!
0"!
0x
0#!
0y
1K
#15000
1!
1x
1y
0K
10!
1'!
1z!
1)!
0&!
0t
0J
#20000
0!
0x
0y
1K
#25000
1!
1x
1y
0K
1*!
0'!
1{!
1+!
0z!
0)!
1|!
1G!
1t
1J
0u
0I
#30000
0!
0x
0y
1K
#35000
1!
1x
1y
0K
1H!
0*!
1}!
1z!
1j!
1I!
11!
0+!
1&!
12!
0G!
0v
0t
0w
0H
0J
0G
#40000
0!
0x
0y
1K
#45000
1!
1x
1y
0K
0H!
1'!
1u!
1q!
1N!
1L!
1=!
1;!
17!
0}!
0{!
0j!
0I!
01!
1)!
0&!
1r
1o
1b
1a
1S
0R
1(
1+
1C
1D
1@
0A
0|!
02!
1v
1w
1H
1G
1u
1I
#50000
0!
0x
0y
1K
#55000
1!
1x
1y
0K
1*!
0'!
1{!
1+!
0z!
0)!
1|!
1G!
1t
1J
0u
0I
#60000
0!
0x
0y
1K
#65000
1!
1x
1y
0K
1H!
0*!
1}!
1z!
1j!
1I!
11!
0+!
1&!
12!
0G!
0v
0t
0w
0H
0J
0G
#70000
0!
0x
0y
1K
#75000
1!
1x
1y
0K
0H!
1'!
0}!
0{!
0j!
0I!
01!
1)!
0&!
0|!
02!
1v
1w
1H
1G
1u
1I
#80000
0!
0x
0y
1K
#85000
1!
1x
1y
0K
1*!
0'!
1{!
1+!
0z!
0)!
1|!
1G!
1t
1J
0u
0I
#90000
0!
0x
0y
1K
#95000
1!
1x
1y
0K
1H!
0*!
1}!
1z!
1j!
1I!
11!
0+!
1&!
12!
0G!
0v
0t
0w
0H
0J
0G
#100000
0!
0x
0y
1K
#105000
1!
1x
1y
0K
0H!
1'!
0}!
0{!
0j!
0I!
01!
1)!
0&!
0|!
02!
1v
1w
1H
1G
1u
1I
#110000
0!
0x
0y
1K
#115000
1!
1x
1y
0K
1*!
0'!
1{!
1+!
0z!
0)!
1|!
1G!
1t
1J
0u
0I
#120000
0!
0x
0y
1K
#125000
1!
1x
1y
0K
1H!
0*!
1}!
1z!
1j!
1I!
11!
0+!
1&!
12!
0G!
0v
0t
0w
0H
0J
0G
#130000
0!
0x
0y
1K
#135000
1!
1x
1y
0K
0H!
1'!
0}!
0{!
0j!
0I!
01!
1)!
0&!
0|!
02!
1v
1w
1H
1G
1u
1I
#140000
0!
0x
0y
1K
#145000
1!
1x
1y
0K
1*!
0'!
1{!
1+!
0z!
0)!
1|!
1G!
1t
1J
0u
0I
#150000
0!
0x
0y
1K
#155000
1!
1x
1y
0K
1H!
0*!
1}!
1z!
1j!
1I!
11!
0+!
1&!
12!
0G!
0v
0t
0w
0H
0J
0G
#160000
0!
0x
0y
1K
#165000
1!
1x
1y
0K
0H!
1'!
0}!
0{!
0j!
0I!
01!
1)!
0&!
0|!
02!
1v
1w
1H
1G
1u
1I
#170000
0!
0x
0y
1K
#175000
1!
1x
1y
0K
1*!
0'!
1{!
1+!
0z!
0)!
1|!
1G!
1t
1J
0u
0I
#180000
0!
0x
0y
1K
#185000
1!
1x
1y
0K
1H!
0*!
1}!
1z!
1j!
1I!
11!
0+!
1&!
12!
0G!
0v
0t
0w
0H
0J
0G
#190000
0!
0x
0y
1K
#195000
1!
1x
1y
0K
0H!
1'!
0}!
0{!
0j!
0I!
01!
1)!
0&!
0|!
02!
1v
1w
1H
1G
1u
1I
#200000
0!
0x
0y
1K
#205000
1!
1x
1y
0K
1*!
0'!
1{!
1+!
0z!
0)!
1|!
1G!
1t
1J
0u
0I
#210000
0!
0x
0y
1K
#215000
1!
1x
1y
0K
1H!
0*!
1}!
1z!
1j!
1I!
11!
0+!
1&!
12!
0G!
0v
0t
0w
0H
0J
0G
#220000
0!
0x
0y
1K
#225000
1!
1x
1y
0K
0H!
1'!
0}!
0{!
0j!
0I!
01!
1)!
0&!
0|!
02!
1v
1w
1H
1G
1u
1I
#230000
0!
0x
0y
1K
#235000
1!
1x
1y
0K
1*!
0'!
1{!
1+!
0z!
0)!
1|!
1G!
1t
1J
0u
0I
#240000
0!
0x
0y
1K
#245000
1!
1x
1y
0K
1H!
0*!
1}!
1z!
1j!
1I!
11!
0+!
1&!
12!
0G!
0v
0t
0w
0H
0J
0G
#250000
0!
0x
0y
1K
#255000
1!
1x
1y
0K
0H!
1'!
0}!
0{!
0j!
0I!
01!
1)!
0&!
0|!
02!
1v
1w
1H
1G
1u
1I
#260000
0!
0x
0y
1K
#265000
1!
1x
1y
0K
1*!
0'!
1{!
1+!
0z!
0)!
1|!
1G!
1t
1J
0u
0I
#270000
0!
0x
0y
1K
#275000
1!
1x
1y
0K
1H!
0*!
1}!
1z!
1j!
1I!
11!
0+!
1&!
12!
0G!
0v
0t
0w
0H
0J
0G
#280000
0!
0x
0y
1K
#285000
1!
1x
1y
0K
0H!
1'!
0}!
0{!
0j!
0I!
01!
1)!
0&!
0|!
02!
1v
1w
1H
1G
1u
1I
#290000
0!
0x
0y
1K
#295000
1!
1x
1y
0K
1*!
0'!
1{!
1+!
0z!
0)!
1|!
1G!
1t
1J
0u
0I
#300000
0!
0x
0y
1K
#305000
1!
1x
1y
0K
1H!
0*!
1}!
1z!
1j!
1I!
11!
0+!
1&!
12!
0G!
0v
0t
0w
0H
0J
0G
#310000
0!
0x
0y
1K
#315000
1!
1x
1y
0K
0H!
1'!
0}!
0{!
0j!
0I!
01!
1)!
0&!
0|!
02!
1v
1w
1H
1G
1u
1I
#320000
0!
0x
0y
1K
#325000
1!
1x
1y
0K
1*!
0'!
1{!
1+!
0z!
0)!
1|!
1G!
1t
1J
0u
0I
#330000
0!
0x
0y
1K
#335000
1!
1x
1y
0K
1H!
0*!
1}!
1z!
1j!
1I!
11!
0+!
1&!
12!
0G!
0v
0t
0w
0H
0J
0G
#340000
0!
0x
0y
1K
#345000
1!
1x
1y
0K
0H!
1'!
0}!
0{!
0j!
0I!
01!
1)!
0&!
0|!
02!
1v
1w
1H
1G
1u
1I
#350000
0!
0x
0y
1K
#355000
1!
1x
1y
0K
1*!
0'!
1{!
1+!
0z!
0)!
1|!
1G!
1t
1J
0u
0I
#360000
0!
0x
0y
1K
#365000
1!
1x
1y
0K
1H!
0*!
1}!
1z!
1j!
1I!
11!
0+!
1&!
12!
0G!
0v
0t
0w
0H
0J
0G
#370000
0!
0x
0y
1K
#375000
1!
1x
1y
0K
0H!
1'!
0}!
0{!
0j!
0I!
01!
1)!
0&!
0|!
02!
1v
1w
1H
1G
1u
1I
#380000
0!
0x
0y
1K
#385000
1!
1x
1y
0K
1*!
0'!
1{!
1+!
0z!
0)!
1|!
1G!
1t
1J
0u
0I
#390000
0!
0x
0y
1K
#395000
1!
1x
1y
0K
1H!
0*!
1}!
1z!
1j!
1I!
11!
0+!
1&!
12!
0G!
0v
0t
0w
0H
0J
0G
#400000
0!
0x
0y
1K
#405000
1!
1x
1y
0K
0H!
1'!
0}!
0{!
0j!
0I!
01!
1)!
0&!
0|!
02!
1v
1w
1H
1G
1u
1I
#410000
0!
0x
0y
1K
#415000
1!
1x
1y
0K
1*!
0'!
1{!
1+!
0z!
0)!
1|!
1G!
1t
1J
0u
0I
#420000
0!
0x
0y
1K
#425000
1!
1x
1y
0K
1H!
0*!
1}!
1z!
1j!
1I!
11!
0+!
1&!
12!
0G!
0v
0t
0w
0H
0J
0G
#430000
0!
0x
0y
1K
#435000
1!
1x
1y
0K
0H!
1'!
0}!
0{!
0j!
0I!
01!
1)!
0&!
0|!
02!
1v
1w
1H
1G
1u
1I
#440000
0!
0x
0y
1K
#445000
1!
1x
1y
0K
1*!
0'!
1{!
1+!
0z!
0)!
1|!
1G!
1t
1J
0u
0I
#450000
0!
0x
0y
1K
#455000
1!
1x
1y
0K
1H!
0*!
1}!
1z!
1j!
1I!
11!
0+!
1&!
12!
0G!
0v
0t
0w
0H
0J
0G
#460000
0!
0x
0y
1K
#465000
1!
1x
1y
0K
0H!
1'!
0}!
0{!
0j!
0I!
01!
1)!
0&!
0|!
02!
1v
1w
1H
1G
1u
1I
#470000
0!
0x
0y
1K
#475000
1!
1x
1y
0K
1*!
0'!
1{!
1+!
0z!
0)!
1|!
1G!
1t
1J
0u
0I
#480000
0!
0x
0y
1K
#485000
1!
1x
1y
0K
1H!
0*!
1}!
1z!
1j!
1I!
11!
0+!
1&!
12!
0G!
0v
0t
0w
0H
0J
0G
#490000
0!
0x
0y
1K
#495000
1!
1x
1y
0K
0H!
1'!
0}!
0{!
0j!
0I!
01!
1)!
0&!
0|!
02!
1v
1w
1H
1G
1u
1I
#500000
0!
0x
0y
1K
#505000
1!
1x
1y
0K
1*!
0'!
1{!
1+!
0z!
0)!
1|!
1G!
1t
1J
0u
0I
#510000
0!
0x
0y
1K
#515000
1!
1x
1y
0K
1H!
0*!
1}!
1z!
1j!
1I!
11!
0+!
1&!
12!
0G!
0v
0t
0w
0H
0J
0G
#520000
0!
0x
0y
1K
#525000
1!
1x
1y
0K
0H!
1'!
0}!
0{!
0j!
0I!
01!
1)!
0&!
0|!
02!
1v
1w
1H
1G
1u
1I
#530000
0!
0x
0y
1K
#535000
1!
1x
1y
0K
1*!
0'!
1{!
1+!
0z!
0)!
1|!
1G!
1t
1J
0u
0I
#540000
0!
0x
0y
1K
#545000
1!
1x
1y
0K
1H!
0*!
1}!
1z!
1j!
1I!
11!
0+!
1&!
12!
0G!
0v
0t
0w
0H
0J
0G
#550000
0!
0x
0y
1K
#555000
1!
1x
1y
0K
0H!
1'!
0}!
0{!
0j!
0I!
01!
1)!
0&!
0|!
02!
1v
1w
1H
1G
1u
1I
#560000
0!
0x
0y
1K
#565000
1!
1x
1y
0K
1*!
0'!
1{!
1+!
0z!
0)!
1|!
1G!
1t
1J
0u
0I
#570000
0!
0x
0y
1K
#575000
1!
1x
1y
0K
1H!
0*!
1}!
1z!
1j!
1I!
11!
0+!
1&!
12!
0G!
0v
0t
0w
0H
0J
0G
#580000
0!
0x
0y
1K
#585000
1!
1x
1y
0K
0H!
1'!
0}!
0{!
0j!
0I!
01!
1)!
0&!
0|!
02!
1v
1w
1H
1G
1u
1I
#590000
0!
0x
0y
1K
#595000
1!
1x
1y
0K
1*!
0'!
1{!
1+!
0z!
0)!
1|!
1G!
1t
1J
0u
0I
#600000
0!
0x
0y
1K
#605000
1!
1x
1y
0K
1H!
0*!
1}!
1z!
1j!
1I!
11!
0+!
1&!
12!
0G!
0v
0t
0w
0H
0J
0G
#610000
0!
0x
0y
1K
#615000
1!
1x
1y
0K
0H!
1'!
0}!
0{!
0j!
0I!
01!
1)!
0&!
0|!
02!
1v
1w
1H
1G
1u
1I
#620000
0!
0x
0y
1K
#625000
1!
1x
1y
0K
1*!
0'!
1{!
1+!
0z!
0)!
1|!
1G!
1t
1J
0u
0I
#630000
0!
0x
0y
1K
#635000
1!
1x
1y
0K
1H!
0*!
1}!
1z!
1j!
1I!
11!
0+!
1&!
12!
0G!
0v
0t
0w
0H
0J
0G
#640000
0!
0x
0y
1K
#645000
1!
1x
1y
0K
0H!
1'!
0}!
0{!
0j!
0I!
01!
1)!
0&!
0|!
02!
1v
1w
1H
1G
1u
1I
#650000
0!
0x
0y
1K
#655000
1!
1x
1y
0K
1*!
0'!
1{!
1+!
0z!
0)!
1|!
1G!
1t
1J
0u
0I
#660000
0!
0x
0y
1K
#665000
1!
1x
1y
0K
1H!
0*!
1}!
1z!
1j!
1I!
11!
0+!
1&!
12!
0G!
0v
0t
0w
0H
0J
0G
#670000
0!
0x
0y
1K
#675000
1!
1x
1y
0K
0H!
1'!
0}!
0{!
0j!
0I!
01!
1)!
0&!
0|!
02!
1v
1w
1H
1G
1u
1I
#680000
0!
0x
0y
1K
#685000
1!
1x
1y
0K
1*!
0'!
1{!
1+!
0z!
0)!
1|!
1G!
1t
1J
0u
0I
#690000
0!
0x
0y
1K
#695000
1!
1x
1y
0K
1H!
0*!
1}!
1z!
1j!
1I!
11!
0+!
1&!
12!
0G!
0v
0t
0w
0H
0J
0G
#700000
0!
0x
0y
1K
#705000
1!
1x
1y
0K
0H!
1'!
0}!
0{!
0j!
0I!
01!
1)!
0&!
0|!
02!
1v
1w
1H
1G
1u
1I
#710000
0!
0x
0y
1K
#715000
1!
1x
1y
0K
1*!
0'!
1{!
1+!
0z!
0)!
1|!
1G!
1t
1J
0u
0I
#720000
0!
0x
0y
1K
#725000
1!
1x
1y
0K
1H!
0*!
1}!
1z!
1j!
1I!
11!
0+!
1&!
12!
0G!
0v
0t
0w
0H
0J
0G
#730000
0!
0x
0y
1K
#735000
1!
1x
1y
0K
0H!
1'!
0}!
0{!
0j!
0I!
01!
1)!
0&!
0|!
02!
1v
1w
1H
1G
1u
1I
#740000
0!
0x
0y
1K
#745000
1!
1x
1y
0K
1*!
0'!
1{!
1+!
0z!
0)!
1|!
1G!
1t
1J
0u
0I
#750000
0!
0x
0y
1K
#755000
1!
1x
1y
0K
1H!
0*!
1}!
1z!
1j!
1I!
11!
0+!
1&!
12!
0G!
0v
0t
0w
0H
0J
0G
#760000
0!
0x
0y
1K
#765000
1!
1x
1y
0K
0H!
1'!
0}!
0{!
0j!
0I!
01!
1)!
0&!
0|!
02!
1v
1w
1H
1G
1u
1I
#770000
0!
0x
0y
1K
#775000
1!
1x
1y
0K
1*!
0'!
1{!
1+!
0z!
0)!
1|!
1G!
1t
1J
0u
0I
#780000
0!
0x
0y
1K
#785000
1!
1x
1y
0K
1H!
0*!
1}!
1z!
1j!
1I!
11!
0+!
1&!
12!
0G!
0v
0t
0w
0H
0J
0G
#790000
0!
0x
0y
1K
#795000
1!
1x
1y
0K
0H!
1'!
0}!
0{!
0j!
0I!
01!
1)!
0&!
0|!
02!
1v
1w
1H
1G
1u
1I
#800000
0!
0x
0y
1K
#805000
1!
1x
1y
0K
1*!
0'!
1{!
1+!
0z!
0)!
1|!
1G!
1t
1J
0u
0I
#810000
0!
0x
0y
1K
#815000
1!
1x
1y
0K
1H!
0*!
1}!
1z!
1j!
1I!
11!
0+!
1&!
12!
0G!
0v
0t
0w
0H
0J
0G
#820000
0!
0x
0y
1K
#825000
1!
1x
1y
0K
0H!
1'!
0}!
0{!
0j!
0I!
01!
1)!
0&!
0|!
02!
1v
1w
1H
1G
1u
1I
#830000
0!
0x
0y
1K
#835000
1!
1x
1y
0K
1*!
0'!
1{!
1+!
0z!
0)!
1|!
1G!
1t
1J
0u
0I
#840000
0!
0x
0y
1K
#845000
1!
1x
1y
0K
1H!
0*!
1}!
1z!
1j!
1I!
11!
0+!
1&!
12!
0G!
0v
0t
0w
0H
0J
0G
#850000
0!
0x
0y
1K
#855000
1!
1x
1y
0K
0H!
1'!
0}!
0{!
0j!
0I!
01!
1)!
0&!
0|!
02!
1v
1w
1H
1G
1u
1I
#860000
0!
0x
0y
1K
#865000
1!
1x
1y
0K
1*!
0'!
1{!
1+!
0z!
0)!
1|!
1G!
1t
1J
0u
0I
#870000
0!
0x
0y
1K
#875000
1!
1x
1y
0K
1H!
0*!
1}!
1z!
1j!
1I!
11!
0+!
1&!
12!
0G!
0v
0t
0w
0H
0J
0G
#880000
0!
0x
0y
1K
#885000
1!
1x
1y
0K
0H!
1'!
0}!
0{!
0j!
0I!
01!
1)!
0&!
0|!
02!
1v
1w
1H
1G
1u
1I
#890000
0!
0x
0y
1K
#895000
1!
1x
1y
0K
1*!
0'!
1{!
1+!
0z!
0)!
1|!
1G!
1t
1J
0u
0I
#900000
0!
0x
0y
1K
#905000
1!
1x
1y
0K
1H!
0*!
1}!
1z!
1j!
1I!
11!
0+!
1&!
12!
0G!
0v
0t
0w
0H
0J
0G
#910000
0!
0x
0y
1K
#915000
1!
1x
1y
0K
0H!
1'!
0}!
0{!
0j!
0I!
01!
1)!
0&!
0|!
02!
1v
1w
1H
1G
1u
1I
#920000
0!
0x
0y
1K
#925000
1!
1x
1y
0K
1*!
0'!
1{!
1+!
0z!
0)!
1|!
1G!
1t
1J
0u
0I
#930000
0!
0x
0y
1K
#935000
1!
1x
1y
0K
1H!
0*!
1}!
1z!
1j!
1I!
11!
0+!
1&!
12!
0G!
0v
0t
0w
0H
0J
0G
#940000
0!
0x
0y
1K
#945000
1!
1x
1y
0K
0H!
1'!
0}!
0{!
0j!
0I!
01!
1)!
0&!
0|!
02!
1v
1w
1H
1G
1u
1I
#950000
0!
0x
0y
1K
#955000
1!
1x
1y
0K
1*!
0'!
1{!
1+!
0z!
0)!
1|!
1G!
1t
1J
0u
0I
#960000
0!
0x
0y
1K
#965000
1!
1x
1y
0K
1H!
0*!
1}!
1z!
1j!
1I!
11!
0+!
1&!
12!
0G!
0v
0t
0w
0H
0J
0G
#970000
0!
0x
0y
1K
#975000
1!
1x
1y
0K
0H!
1'!
0}!
0{!
0j!
0I!
01!
1)!
0&!
0|!
02!
1v
1w
1H
1G
1u
1I
#980000
0!
0x
0y
1K
#985000
1!
1x
1y
0K
1*!
0'!
1{!
1+!
0z!
0)!
1|!
1G!
1t
1J
0u
0I
#990000
0!
0x
0y
1K
#995000
1!
1x
1y
0K
1H!
0*!
1}!
1z!
1j!
1I!
11!
0+!
1&!
12!
0G!
0v
0t
0w
0H
0J
0G
