Folder/IR/simulation/qsim/ir.msim.vcd
$comment
	File created using the following command:
		vcd file ir.msim.vcd -direction
$end
$date
	Fri Apr 01 16:00:41 2022
$end
$version
	ModelSim Version 10.1d
$end
$timescale
	1ps
$end
$scope module ir_vlg_vec_tst $end
$var reg 1 ! clk $end
$var reg 16 " IR_in [15:0] $end
$var reg 1 # IR_ld $end
$var wire 1 $ IR_out [15] $end
$var wire 1 % IR_out [14] $end
$var wire 1 & IR_out [13] $end
$var wire 1 ' IR_out [12] $end
$var wire 1 ( IR_out [11] $end
$var wire 1 ) IR_out [10] $end
$var wire 1 * IR_out [9] $end
$var wire 1 + IR_out [8] $end
$var wire 1 , IR_out [7] $end
$var wire 1 - IR_out [6] $end
$var wire 1 . IR_out [5] $end
$var wire 1 / IR_out [4] $end
$var wire 1 0 IR_out [3] $end
$var wire 1 1 IR_out [2] $end
$var wire 1 2 IR_out [1] $end
$var wire 1 3 IR_out [0] $end
$var wire 1 4 sampler $end
$scope module i1 $end
$var wire 1 5 gnd $end
$var wire 1 6 vcc $end
$var wire 1 7 unknown $end
$var tri1 1 8 devclrn $end
$var tri1 1 9 devpor $end
$var tri1 1 : devoe $end
$var wire 1 ; IR_out[0]~output_o $end
$var wire 1 < IR_out[1]~output_o $end
$var wire 1 = IR_out[2]~output_o $end
$var wire 1 > IR_out[3]~output_o $end
$var wire 1 ? IR_out[4]~output_o $end
$var wire 1 @ IR_out[5]~output_o $end
$var wire 1 A IR_out[6]~output_o $end
$var wire 1 B IR_out[7]~output_o $end
$var wire 1 C IR_out[8]~output_o $end
$var wire 1 D IR_out[9]~output_o $end
$var wire 1 E IR_out[10]~output_o $end
$var wire 1 F IR_out[11]~output_o $end
$var wire 1 G IR_out[12]~output_o $end
$var wire 1 H IR_out[13]~output_o $end
$var wire 1 I IR_out[14]~output_o $end
$var wire 1 J IR_out[15]~output_o $end
$var wire 1 K clk~input_o $end
$var wire 1 L clk~inputclkctrl_outclk $end
$var wire 1 M IR_in[0]~input_o $end
$var wire 1 N IR_out[0]~reg0feeder_combout $end
$var wire 1 O IR_ld~input_o $end
$var wire 1 P IR_out[0]~reg0_q $end
$var wire 1 Q IR_in[1]~input_o $end
$var wire 1 R IR_out[1]~reg0feeder_combout $end
$var wire 1 S IR_out[1]~reg0_q $end
$var wire 1 T IR_in[2]~input_o $end
$var wire 1 U IR_out[2]~reg0_q $end
$var wire 1 V IR_in[3]~input_o $end
$var wire 1 W IR_out[3]~reg0_q $end
$var wire 1 X IR_in[4]~input_o $end
$var wire 1 Y IR_out[4]~reg0_q $end
$var wire 1 Z IR_in[5]~input_o $end
$var wire 1 [ IR_out[5]~reg0_q $end
$var wire 1 \ IR_in[6]~input_o $end
$var wire 1 ] IR_out[6]~reg0feeder_combout $end
$var wire 1 ^ IR_out[6]~reg0_q $end
$var wire 1 _ IR_in[7]~input_o $end
$var wire 1 ` IR_out[7]~reg0feeder_combout $end
$var wire 1 a IR_out[7]~reg0_q $end
$var wire 1 b IR_in[8]~input_o $end
$var wire 1 c IR_out[8]~reg0feeder_combout $end
$var wire 1 d IR_out[8]~reg0_q $end
$var wire 1 e IR_in[9]~input_o $end
$var wire 1 f IR_out[9]~reg0feeder_combout $end
$var wire 1 g IR_out[9]~reg0_q $end
$var wire 1 h IR_in[10]~input_o $end
$var wire 1 i IR_out[10]~reg0feeder_combout $end
$var wire 1 j IR_out[10]~reg0_q $end
$var wire 1 k IR_in[11]~input_o $end
$var wire 1 l IR_out[11]~reg0feeder_combout $end
$var wire 1 m IR_out[11]~reg0_q $end
$var wire 1 n IR_in[12]~input_o $end
$var wire 1 o IR_out[12]~reg0_q $end
$var wire 1 p IR_in[13]~input_o $end
$var wire 1 q IR_out[13]~reg0_q $end
$var wire 1 r IR_in[14]~input_o $end
$var wire 1 s IR_out[14]~reg0feeder_combout $end
$var wire 1 t IR_out[14]~reg0_q $end
$var wire 1 u IR_in[15]~input_o $end
$var wire 1 v IR_out[15]~reg0feeder_combout $end
$var wire 1 w IR_out[15]~reg0_q $end
$upscope $end
$upscope $end
$enddefinitions $end
#0
$dumpvars
0!
b10111110000000 "
0#
03
02
01
00
0/
0.
0-
0,
0+
0*
0)
0(
0'
0&
0%
0$
x4
05
16
x7
18
19
1:
0;
0<
0=
0>
0?
0@
0A
0B
0C
0D
0E
0F
0G
0H
0I
0J
0K
0L
0M
0N
0O
0P
0Q
0R
0S
0T
0U
0V
0W
0X
0Y
0Z
0[
0\
0]
0^
1_
1`
0a
1b
1c
0d
1e
1f
0g
1h
1i
0j
1k
1l
0m
0n
0o
1p
0q
0r
0s
0t
0u
0v
0w
$end
#5000
1!
1K
1L
04
#10000
0!
0K
0L
14
#15000
1!
1K
1L
04
#20000
0!
0K
0L
14
#25000
1!
1K
1L
04
#30000
1#
0!
1O
0K
0L
14
#35000
1!
1K
1L
04
1q
1m
1j
1g
1d
1a
1H
1F
1E
1D
1C
1B
1&
1(
1)
1*
1+
1,
#40000
0#
0!
0O
0K
0L
14
#45000
1!
1K
1L
04
#50000
0!
0K
0L
14
#55000
1!
1K
1L
04
#60000
0!
0K
0L
14
#65000
1!
1K
1L
04
#70000
0!
0K
0L
14
#75000
1!
1K
1L
04
#80000
0!
0K
0L
14
#85000
1!
1K
1L
04
#90000
0!
0K
0L
14
#95000
1!
1K
1L
04
#100000
0!
0K
0L
14
#105000
1!
1K
1L
04
#110000
0!
0K
0L
14
#115000
1!
1K
1L
04
#120000
0!
0K
0L
14
#125000
1!
1K
1L
04
#130000
0!
0K
0L
14
#135000
1!
1K
1L
04
#140000
0!
0K
0L
14
#145000
1!
1K
1L
04
#150000
0!
0K
0L
14
#155000
1!
1K
1L
04
#160000
0!
0K
0L
14
#165000
1!
1K
1L
04
#170000
0!
0K
0L
14
#175000
1!
1K
1L
04
#180000
0!
0K
0L
14
#185000
1!
1K
1L
04
#190000
0!
0K
0L
14
#195000
1!
1K
1L
04
#200000
0!
0K
0L
14
#205000
1!
1K
1L
04
#210000
0!
0K
0L
14
#215000
1!
1K
1L
04
#220000
0!
0K
0L
14
#225000
1!
1K
1L
04
#230000
0!
0K
0L
14
#235000
1!
1K
1L
04
#240000
0!
0K
0L
14
#245000
1!
1K
1L
04
#250000
0!
0K
0L
14
#255000
1!
1K
1L
04
#260000
0!
0K
0L
14
#265000
1!
1K
1L
04
#270000
0!
0K
0L
14
#275000
1!
1K
1L
04
#280000
0!
0K
0L
14
#285000
1!
1K
1L
04
#290000
0!
0K
0L
14
#295000
1!
1K
1L
04
#300000
0!
0K
0L
14
#305000
1!
1K
1L
04
#310000
0!
0K
0L
14
#315000
1!
1K
1L
04
#320000
0!
0K
0L
14
#325000
1!
1K
1L
04
#330000
0!
0K
0L
14
#335000
1!
1K
1L
04
#340000
0!
0K
0L
14
#345000
1!
1K
1L
04
#350000
0!
0K
0L
14
#355000
1!
1K
1L
04
#360000
0!
0K
0L
14
#365000
1!
1K
1L
04
#370000
0!
0K
0L
14
#375000
1!
1K
1L
04
#380000
0!
0K
0L
14
#385000
1!
1K
1L
04
#390000
0!
0K
0L
14
#395000
1!
1K
1L
04
#400000
0!
0K
0L
14
#405000
1!
1K
1L
04
#410000
0!
0K
0L
14
#415000
1!
1K
1L
04
#420000
0!
0K
0L
14
#425000
1!
1K
1L
04
#430000
0!
0K
0L
14
#435000
1!
1K
1L
04
#440000
0!
0K
0L
14
#445000
1!
1K
1L
04
#450000
0!
0K
0L
14
#455000
1!
1K
1L
04
#460000
0!
0K
0L
14
#465000
1!
1K
1L
04
#470000
0!
0K
0L
14
#475000
1!
1K
1L
04
#480000
0!
0K
0L
14
#485000
1!
1K
1L
04
#490000
0!
0K
0L
14
#495000
1!
1K
1L
04
#500000
0!
0K
0L
14
#505000
1!
1K
1L
04
#510000
0!
0K
0L
14
#515000
1!
1K
1L
04
#520000
0!
0K
0L
14
#525000
1!
1K
1L
04
#530000
0!
0K
0L
14
#535000
1!
1K
1L
04
#540000
0!
0K
0L
14
#545000
1!
1K
1L
04
#550000
0!
0K
0L
14
#555000
1!
1K
1L
04
#560000
0!
0K
0L
14
#565000
1!
1K
1L
04
#570000
0!
0K
0L
14
#575000
1!
1K
1L
04
#580000
0!
0K
0L
14
#585000
1!
1K
1L
04
#590000
0!
0K
0L
14
#595000
1!
1K
1L
04
#600000
0!
0K
0L
14
#605000
1!
1K
1L
04
#610000
0!
0K
0L
14
#615000
1!
1K
1L
04
#620000
0!
0K
0L
14
#625000
1!
1K
1L
04
#630000
0!
0K
0L
14
#635000
1!
1K
1L
04
#640000
0!
0K
0L
14
#645000
1!
1K
1L
04
#650000
0!
0K
0L
14
#655000
1!
1K
1L
04
#660000
0!
0K
0L
14
#665000
1!
1K
1L
04
#670000
0!
0K
0L
14
#675000
1!
1K
1L
04
#680000
0!
0K
0L
14
#685000
1!
1K
1L
04
#690000
0!
0K
0L
14
#695000
1!
1K
1L
04
#700000
0!
0K
0L
14
#705000
1!
1K
1L
04
#710000
0!
0K
0L
14
#715000
1!
1K
1L
04
#720000
0!
0K
0L
14
#725000
1!
1K
1L
04
#730000
0!
0K
0L
14
#735000
1!
1K
1L
04
#740000
0!
0K
0L
14
#745000
1!
1K
1L
04
#750000
0!
0K
0L
14
#755000
1!
1K
1L
04
#760000
0!
0K
0L
14
#765000
1!
1K
1L
04
#770000
0!
0K
0L
14
#775000
1!
1K
1L
04
#780000
0!
0K
0L
14
#785000
1!
1K
1L
04
#790000
0!
0K
0L
14
#795000
1!
1K
1L
04
#800000
0!
0K
0L
14
#805000
1!
1K
1L
04
#810000
0!
0K
0L
14
#815000
1!
1K
1L
04
#820000
0!
0K
0L
14
#825000
1!
1K
1L
04
#830000
0!
0K
0L
14
#835000
1!
1K
1L
04
#840000
0!
0K
0L
14
#845000
1!
1K
1L
04
#850000
0!
0K
0L
14
#855000
1!
1K
1L
04
#860000
0!
0K
0L
14
#865000
1!
1K
1L
04
#870000
0!
0K
0L
14
#875000
1!
1K
1L
04
#880000
0!
0K
0L
14
#885000
1!
1K
1L
04
#890000
0!
0K
0L
14
#895000
1!
1K
1L
04
#900000
0!
0K
0L
14
#905000
1!
1K
1L
04
#910000
0!
0K
0L
14
#915000
1!
1K
1L
04
#920000
0!
0K
0L
14
#925000
1!
1K
1L
04
#930000
0!
0K
0L
14
#935000
1!
1K
1L
04
#940000
0!
0K
0L
14
#945000
1!
1K
1L
04
#950000
0!
0K
0L
14
#955000
1!
1K
1L
04
#960000
0!
0K
0L
14
#965000
1!
1K
1L
04
#970000
0!
0K
0L
14
#975000
1!
1K
1L
04
#980000
0!
0K
0L
14
#985000
1!
1K
1L
04
#990000
0!
0K
0L
14
#995000
1!
1K
1L
04
